Tidy data and data wrangling 🔧
…
---

## Summary tables 

.question[
Is each of the following a dataset or a summary table?
]

.small[
.pull-left[

```
## # A tibble: 87 x 3
##    name               height  mass
##    <chr>               <int> <dbl>
##  1 Luke Skywalker        172    77
##  2 C-3PO                 167    75
##  3 R2-D2                  96    32
##  4 Darth Vader           202   136
##  5 Leia Organa           150    49
##  6 Owen Lars             178   120
##  7 Beru Whitesun lars    165    75
##  8 R5-D4                  97    32
##  9 Biggs Darklighter     183    84
## 10 Obi-Wan Kenobi        182    77
## # ... with 77 more rows
```
…
---

## `filter` to select a subset of rows

for crashes in Durham County

```r
ncbikecrash %>%
* filter(county == "Durham")
```

```
## # A tibble: 340 x 67
##    object_id city  county region development locality on_road rural_urban speed_limit
##        <int> <chr> <chr>  <chr>  <chr>       <chr>    <chr>   <chr>       <chr>      
##  1      2452 Durh~ Durham Piedm~ Residential Urban (~ <NA>    Urban       30 - 35  M~
##  2      2441 Durh~ Durham Piedm~ Commercial  Urban (~ <NA>    Urban       30 - 35  M~
##  3      2466 Durh~ Durham Piedm~ Commercial  Urban (~ <NA>    Urban       5 - 15 MPH 
##  4       549 Durh~ Durham Piedm~ Residential Urban (~ PARK A~ Urban       20 - 25  M~
##  5       598 Durh~ Durham Piedm~ Residential Urban (~ BELT S~ Urban       20 - 25  M~
##  6       603 Durh~ Durham Piedm~ Residential Urban (~ HINSON~ Urban       20 - 25  M~
##  7      3974 Durh~ Durham Piedm~ Commercial  Urban (~ <NA>    Urban       20 - 25  M~
##  8      7134 Durh~ Durham Piedm~ Commercial  Urban (~ <NA>    Urban       30 - 35  M~
##  9      1670 Durh~ Durham Piedm~ Commercial  Urban (~ INFINI~ Urban       30 - 35  M~
## 10      1773 Durh~ Durham Piedm~ Residential Urban (~ <NA>    Urban       30 - 35  M~
## # ... with 330 more rows, and 58 more variables: traffic_control <chr>, weather <chr>,
## #   workzone <chr>, bike_age <chr>, bike_age_group <chr>, bike_alcohol <chr>,
## #   bike_alcohol_drugs <chr>, bike_direction <chr>, bike_injury <chr>, bike_position <chr>,
## #   bike_race <chr>, bike_sex <chr>, driver_age <chr>, driver_age_group <chr>,
## #   driver_alcohol <chr>, driver_alcohol_drugs <chr>, driver_est_speed <chr>,
## #   driver_injury <chr>, driver_race <chr>, driver_sex <chr>, driver_vehicle_type <chr>,
## #   crash_alcohol <chr>, crash_date <chr>, crash_day <chr>, crash_group <chr>,
## #   crash_hour <int>, crash_location <chr>, crash_month <chr>, crash_severity <chr>,
## #   crash_time <time>, crash_type <chr>, crash_year <int>, ambulance_req <chr>, hit_run <chr>,
…
---

## `select` to exclude variables

```r
ncbikecrash %>%
  select(-object_id)
```

```
## # A tibble: 7,467 x 66
##    city  county region development locality on_road rural_urban speed_limit traffic_control
##    <chr> <chr>  <chr>  <chr>       <chr>    <chr>   <chr>       <chr>       <chr>          
##  1 None~ Wayne  Coast~ Farms, Woo~ Rural (~ SR 1915 Rural       50 - 55  M~ No Control Pre~
##  2 Hend~ Vance  Piedm~ Residential Mixed (~ NICHOL~ Urban       30 - 35  M~ Stop Sign      
##  3 None~ Linco~ Piedm~ Farms, Woo~ Rural (~ US 321  Rural       50 - 55  M~ Double Yellow ~
##  4 Whit~ Colum~ Coast~ Commercial  Urban (~ W BURK~ Urban       30 - 35  M~ No Control Pre~
##  5 Wilm~ New H~ Coast~ Residential Urban (~ RACINE~ Urban       <NA>        Stop And Go Si~
##  6 None~ Robes~ Coast~ Farms, Woo~ Rural (~ SR 1513 Rural       50 - 55  M~ No Control Pre~
##  7 None~ Richm~ Piedm~ Residential Mixed (~ SR 1903 Rural       30 - 35  M~ No Control Pre~
##  8 Rale~ Wake   Piedm~ Commercial  Urban (~ PERSON~ Urban       30 - 35  M~ Stop And Go Si~
##  9 Whit~ Colum~ Coast~ Residential Rural (~ FLOWER~ Urban       30 - 35  M~ No Control Pre~
## 10 New ~ Craven Coast~ Residential Urban (~ SUTTON~ Urban       20 - 25  M~ No Control Pre~
## # ... with 7,457 more rows, and 57 more variables: weather <chr>, workzone <chr>,
## #   bike_age <chr>, bike_age_group <chr>, bike_alcohol <chr>, bike_alcohol_drugs <chr>,
## #   bike_direction <chr>, bike_injury <chr>, bike_position <chr>, bike_race <chr>,
## #   bike_sex <chr>, driver_age <chr>, driver_age_group <chr>, driver_alcohol <chr>,
## #   driver_alcohol_drugs <chr>, driver_est_speed <chr>, driver_injury <chr>,
## #   driver_race <chr>, driver_sex <chr>, driver_vehicle_type <chr>, crash_alcohol <chr>,
## #   crash_date <chr>, crash_day <chr>, crash_group <chr>, crash_hour <int>,
## #   crash_location <chr>, crash_month <chr>, crash_severity <chr>, crash_time <time>,
## #   crash_type <chr>, crash_year <int>, ambulance_req <chr>, hit_run <chr>,
…
---

## `select` a range of variables

```r
ncbikecrash %>%
  select(city:locality)
```

```
## # A tibble: 7,467 x 5
##    city               county      region   development            locality                    
##    <chr>              <chr>       <chr>    <chr>                  <chr>                       
##  1 None - Rural Crash Wayne       Coastal  Farms, Woods, Pastures Rural (<30% Developed)      
##  2 Henderson          Vance       Piedmont Residential            Mixed (30% To 70% Developed)
##  3 None - Rural Crash Lincoln     Piedmont Farms, Woods, Pastures Rural (<30% Developed)      
##  4 Whiteville         Columbus    Coastal  Commercial             Urban (>70% Developed)      
##  5 Wilmington         New Hanover Coastal  Residential            Urban (>70% Developed)      
##  6 None - Rural Crash Robeson     Coastal  Farms, Woods, Pastures Rural (<30% Developed)      
##  7 None - Rural Crash Richmond    Piedmont Residential            Mixed (30% To 70% Developed)
##  8 Raleigh            Wake        Piedmont Commercial             Urban (>70% Developed)      
##  9 Whiteville         Columbus    Coastal  Residential            Rural (<30% Developed)      
## 10 New Bern           Craven      Coastal  Residential            Urban (>70% Developed)      
## # ... with 7,457 more rows
```
…
---

## `distinct` to filter for unique rows

And `arrange` to order alphabetically

```r
ncbikecrash %>% 
  select(county, city) %>% 
  distinct() %>% 
  arrange(county, city)
```

```
## # A tibble: 391 x 2
##    county    city              
##    <chr>     <chr>             
##  1 Alamance  Alamance          
##  2 Alamance  Burlington        
##  3 Alamance  Elon              
##  4 Alamance  Elon College      
##  5 Alamance  Gibsonville       
##  6 Alamance  Graham            
##  7 Alamance  Green Level       
##  8 Alamance  Mebane            
##  9 Alamance  None - Rural Crash
## 10 Alexander None - Rural Crash
## # ... with 381 more rows
```
…
