Assignment 1 - Data Manipulation and Visualization
…
How many rows and columns does the dataset have? How many different first languages do the learners speak? Which language is spoken most often?

dim(stex)

## [1] 50235    16

length(unique(stex$L1))

## [1] 70

stex %>% count(L1) %>% arrange(desc(n))

## # A tibble: 70 x 2
##    L1          n
##    <fct>   <int>
##  1 Arabic   5927
##  2 German   5226
##  3 Russian  3772
##  4 Persian  3382
##  5 English  3041
##  6 Spanish  2872
##  7 Turkish  2868
##  8 Polish   2651
##  9 Serbian  2188
## 10 French   1574
## # ... with 60 more rows
…
